^C:\USERS\黎大富\DESKTOP\物件導向\作業12\12.1-MEMORY_SIMULATOR\X64\DEBUG\MAIN.OBJ
C:\USERS\黎大富\DESKTOP\物件導向\作業12\X64\DEBUG\12.1-MEMORY_SIMULATOR.EXE
C:\USERS\黎大富\DESKTOP\物件導向\作業12\X64\DEBUG\12.1-MEMORY_SIMULATOR.ILK
C:\USERS\黎大富\DESKTOP\物件導向\作業12\X64\DEBUG\12.1-MEMORY_SIMULATOR.PDB
