^C:\USERS\黎大富\DESKTOP\物件導向\作業13\13.1-TEMPLATE_BINARY_SEARCH\X64\DEBUG\MAIN.OBJ
C:\USERS\黎大富\DESKTOP\物件導向\作業13\X64\DEBUG\13.1-TEMPLATE_BINARY_SEARCH.EXE
C:\USERS\黎大富\DESKTOP\物件導向\作業13\X64\DEBUG\13.1-TEMPLATE_BINARY_SEARCH.ILK
C:\USERS\黎大富\DESKTOP\物件導向\作業13\X64\DEBUG\13.1-TEMPLATE_BINARY_SEARCH.PDB
