^D:\MIDTERM\MIDTERM_02_ARRAYTOINTEGER\ATOI.H
/c /ZI /JMC /nologo /W3 /WX- /diagnostics:classic /sdl /Od /D _CRT_SECURE_NO_WARNINGS /D _UNICODE /D UNICODE /Gm- /EHsc /RTC1 /MDd /GS /fp:precise /permissive- /Zc:wchar_t /Zc:forScope /Zc:inline /Fo"X64\DEBUG\\" /Fd"X64\DEBUG\VC141.PDB" /Gd /TP /FC D:\MIDTERM\MIDTERM_02_ARRAYTOINTEGER\ATOI.H
^D:\MIDTERM\MIDTERM_02_ARRAYTOINTEGER\MAIN.CPP
/c /ZI /JMC /nologo /W3 /WX- /diagnostics:classic /sdl /Od /D _CRT_SECURE_NO_WARNINGS /D _UNICODE /D UNICODE /Gm- /EHsc /RTC1 /MDd /GS /fp:precise /permissive- /Zc:wchar_t /Zc:forScope /Zc:inline /Fo"X64\DEBUG\\" /Fd"X64\DEBUG\VC141.PDB" /Gd /TP /FC D:\MIDTERM\MIDTERM_02_ARRAYTOINTEGER\MAIN.CPP
^D:\MIDTERM\MIDTERM_02_ARRAYTOINTEGER\ATOI.CPP
/c /ZI /JMC /nologo /W3 /WX- /diagnostics:classic /sdl /Od /D _CRT_SECURE_NO_WARNINGS /D _UNICODE /D UNICODE /Gm- /EHsc /RTC1 /MDd /GS /fp:precise /permissive- /Zc:wchar_t /Zc:forScope /Zc:inline /Fo"X64\DEBUG\\" /Fd"X64\DEBUG\VC141.PDB" /Gd /TP /FC D:\MIDTERM\MIDTERM_02_ARRAYTOINTEGER\ATOI.CPP
