^C:\USERS\黎大富\DESKTOP\物件導向\實習6\5.2-CPU_BIT_GROWTH_LAB\MAIN.CPP
C:\USERS\黎大富\DESKTOP\物件導向\實習6\5.2-CPU_BIT_GROWTH_LAB\X64\DEBUG\VC142.PDB
C:\USERS\黎大富\DESKTOP\物件導向\實習6\5.2-CPU_BIT_GROWTH_LAB\X64\DEBUG\VC142.IDB
C:\USERS\黎大富\DESKTOP\物件導向\實習6\5.2-CPU_BIT_GROWTH_LAB\X64\DEBUG\MAIN.OBJ
