^C:\USERS\黎大富\DESKTOP\物件導向\實習2\2.2-ADDING_LARGE_NUMBERS -   LAB\MAIN.CPP
C:\USERS\黎大富\DESKTOP\物件導向\實習2\2.2-ADDING_LARGE_NUMBERS -   LAB\X64\DEBUG\VC142.PDB
C:\USERS\黎大富\DESKTOP\物件導向\實習2\2.2-ADDING_LARGE_NUMBERS -   LAB\X64\DEBUG\VC142.IDB
C:\USERS\黎大富\DESKTOP\物件導向\實習2\2.2-ADDING_LARGE_NUMBERS -   LAB\X64\DEBUG\MAIN.OBJ
