^C:\USERS\黎大富\DESKTOP\物件導向\實習七\7.1-NUMBER_GAME_LAB\MAIN.CPP|C:\USERS\黎大富\DOWNLOADS\NUMBERGAME.CPP
C:\USERS\黎大富\DESKTOP\物件導向\實習七\7.1-NUMBER_GAME_LAB\X64\DEBUG\VC142.PDB
C:\USERS\黎大富\DESKTOP\物件導向\實習七\7.1-NUMBER_GAME_LAB\X64\DEBUG\VC142.IDB
C:\USERS\黎大富\DESKTOP\物件導向\實習七\7.1-NUMBER_GAME_LAB\X64\DEBUG\NUMBERGAME.OBJ
^C:\USERS\黎大富\DESKTOP\物件導向\實習七\7.1-NUMBER_GAME_LAB\MAIN.CPP|C:\USERS\黎大富\DESKTOP\物件導向\實習七\7.1-NUMBER_GAME_LAB\NUMBERGAME.CPP
C:\USERS\黎大富\DESKTOP\物件導向\實習七\7.1-NUMBER_GAME_LAB\X64\DEBUG\VC142.PDB
C:\USERS\黎大富\DESKTOP\物件導向\實習七\7.1-NUMBER_GAME_LAB\X64\DEBUG\VC142.IDB
C:\USERS\黎大富\DESKTOP\物件導向\實習七\7.1-NUMBER_GAME_LAB\X64\DEBUG\MAIN.OBJ
C:\USERS\黎大富\DESKTOP\物件導向\實習七\7.1-NUMBER_GAME_LAB\X64\DEBUG\NUMBERGAME.OBJ
^C:\USERS\黎大富\DESKTOP\物件導向\實習七\7.1-NUMBER_GAME_LAB\MAIN.CPP
C:\USERS\黎大富\DESKTOP\物件導向\實習七\7.1-NUMBER_GAME_LAB\X64\DEBUG\VC142.PDB
C:\USERS\黎大富\DESKTOP\物件導向\實習七\7.1-NUMBER_GAME_LAB\X64\DEBUG\VC142.IDB
C:\USERS\黎大富\DESKTOP\物件導向\實習七\7.1-NUMBER_GAME_LAB\X64\DEBUG\MAIN.OBJ
^C:\USERS\黎大富\DESKTOP\物件導向\實習七\7.1-NUMBER_GAME_LAB\NUMBERGAME.CPP
C:\USERS\黎大富\DESKTOP\物件導向\實習七\7.1-NUMBER_GAME_LAB\X64\DEBUG\VC142.PDB
C:\USERS\黎大富\DESKTOP\物件導向\實習七\7.1-NUMBER_GAME_LAB\X64\DEBUG\VC142.IDB
C:\USERS\黎大富\DESKTOP\物件導向\實習七\7.1-NUMBER_GAME_LAB\X64\DEBUG\NUMBERGAME.OBJ
