^C:\USERS\黎大富\DESKTOP\物件導向\HW7\7.1-FORM_WORD\FORM.H|C:\USERS\黎大富\DESKTOP\物件導向\HW7\7.1-FORM_WORD\MAIN.CPP
C:\USERS\黎大富\DESKTOP\物件導向\HW7\7.1-FORM_WORD\X64\DEBUG\VC142.PDB
C:\USERS\黎大富\DESKTOP\物件導向\HW7\7.1-FORM_WORD\X64\DEBUG\VC142.IDB
C:\USERS\黎大富\DESKTOP\物件導向\HW7\7.1-FORM_WORD\X64\DEBUG\MAIN.OBJ
C:\USERS\黎大富\DESKTOP\物件導向\HW7\7.1-FORM_WORD\X64\DEBUG\FORM.OBJ
^C:\USERS\黎大富\DESKTOP\物件導向\HW7\7.1-FORM_WORD\MAIN.CPP
C:\USERS\黎大富\DESKTOP\物件導向\HW7\7.1-FORM_WORD\X64\DEBUG\VC142.PDB
^C:\USERS\黎大富\DESKTOP\物件導向\HW7\7.1-FORM_WORD\FORM.H
C:\USERS\黎大富\DESKTOP\物件導向\HW7\7.1-FORM_WORD\X64\DEBUG\VC142.PDB
C:\USERS\黎大富\DESKTOP\物件導向\HW7\7.1-FORM_WORD\X64\DEBUG\VC142.IDB
C:\USERS\黎大富\DESKTOP\物件導向\HW7\7.1-FORM_WORD\X64\DEBUG\FORM.OBJ
