^C:\USERS\黎大富\DESKTOP\物件導向\HW7\7.1-FORM_WORD\X64\DEBUG\FORM.OBJ|C:\USERS\黎大富\DESKTOP\物件導向\HW7\7.1-FORM_WORD\X64\DEBUG\MAIN.OBJ
C:\USERS\黎大富\DESKTOP\物件導向\HW7\X64\DEBUG\7.1-FORM_WORD.EXE
C:\USERS\黎大富\DESKTOP\物件導向\HW7\X64\DEBUG\7.1-FORM_WORD.ILK
C:\USERS\黎大富\DESKTOP\物件導向\HW7\X64\DEBUG\7.1-FORM_WORD.PDB
