^C:\USERS\黎大富\DESKTOP\物件導向\作業3\3.2-TEXT-BASED HISTOGRAM\MAIN.CPP
C:\USERS\黎大富\DESKTOP\物件導向\作業3\3.2-TEXT-BASED HISTOGRAM\X64\DEBUG\VC142.PDB
C:\USERS\黎大富\DESKTOP\物件導向\作業3\3.2-TEXT-BASED HISTOGRAM\X64\DEBUG\VC142.IDB
C:\USERS\黎大富\DESKTOP\物件導向\作業3\3.2-TEXT-BASED HISTOGRAM\X64\DEBUG\MAIN.OBJ
