^C:\USERS\黎大富\DESKTOP\物件導向\實習6\5.3-SIMPLE_DRAWING_PROGRAM_LAB\X64\DEBUG\MAIN.OBJ
/OUT:"C:\USERS\黎大富\DESKTOP\物件導向\實習6\X64\DEBUG\5.3-SIMPLE_DRAWING_PROGRAM_LAB.EXE" /INCREMENTAL /NOLOGO KERNEL32.LIB USER32.LIB GDI32.LIB WINSPOOL.LIB COMDLG32.LIB ADVAPI32.LIB SHELL32.LIB OLE32.LIB OLEAUT32.LIB UUID.LIB ODBC32.LIB ODBCCP32.LIB /MANIFEST /MANIFESTUAC:"level='asInvoker' uiAccess='false'" /manifest:embed /DEBUG:FASTLINK /PDB:"C:\USERS\黎大富\DESKTOP\物件導向\實習6\X64\DEBUG\5.3-SIMPLE_DRAWING_PROGRAM_LAB.PDB" /SUBSYSTEM:CONSOLE /TLBID:1 /DYNAMICBASE /NXCOMPAT /IMPLIB:"C:\USERS\黎大富\DESKTOP\物件導向\實習6\X64\DEBUG\5.3-SIMPLE_DRAWING_PROGRAM_LAB.LIB" /MACHINE:X64 X64\DEBUG\MAIN.OBJ
^C:\USERS\黎大富\DESKTOP\台科的作業\物件導向\實習6\5.3-SIMPLE_DRAWING_PROGRAM_LAB\X64\DEBUG\MAIN.OBJ
/OUT:"C:\USERS\黎大富\DESKTOP\台科的作業\物件導向\實習6\X64\DEBUG\5.3-SIMPLE_DRAWING_PROGRAM_LAB.EXE" /INCREMENTAL /NOLOGO KERNEL32.LIB USER32.LIB GDI32.LIB WINSPOOL.LIB COMDLG32.LIB ADVAPI32.LIB SHELL32.LIB OLE32.LIB OLEAUT32.LIB UUID.LIB ODBC32.LIB ODBCCP32.LIB /MANIFEST /MANIFESTUAC:"level='asInvoker' uiAccess='false'" /manifest:embed /DEBUG:FASTLINK /PDB:"C:\USERS\黎大富\DESKTOP\台科的作業\物件導向\實習6\X64\DEBUG\5.3-SIMPLE_DRAWING_PROGRAM_LAB.PDB" /SUBSYSTEM:CONSOLE /TLBID:1 /DYNAMICBASE /NXCOMPAT /IMPLIB:"C:\USERS\黎大富\DESKTOP\台科的作業\物件導向\實習6\X64\DEBUG\5.3-SIMPLE_DRAWING_PROGRAM_LAB.LIB" /MACHINE:X64 X64\DEBUG\MAIN.OBJ
