^C:\USERS\黎大富\DESKTOP\物件導向\作業5\5.2-DESIGN_MONTH_CLASS\MONTH.CPP|C:\USERS\黎大富\DESKTOP\物件導向\作業5\5.2-DESIGN_MONTH_CLASS\MONTH.H
C:\USERS\黎大富\DESKTOP\物件導向\作業5\5.2-DESIGN_MONTH_CLASS\X64\DEBUG\VC142.PDB
C:\USERS\黎大富\DESKTOP\物件導向\作業5\5.2-DESIGN_MONTH_CLASS\X64\DEBUG\VC142.IDB
C:\USERS\黎大富\DESKTOP\物件導向\作業5\5.2-DESIGN_MONTH_CLASS\X64\DEBUG\MONTH.OBJ
^C:\USERS\黎大富\DESKTOP\物件導向\作業5\5.2-DESIGN_MONTH_CLASS\MAIN.CPP|C:\USERS\黎大富\DESKTOP\物件導向\作業5\5.2-DESIGN_MONTH_CLASS\MONTH.CPP
C:\USERS\黎大富\DESKTOP\物件導向\作業5\5.2-DESIGN_MONTH_CLASS\X64\DEBUG\VC142.PDB
C:\USERS\黎大富\DESKTOP\物件導向\作業5\5.2-DESIGN_MONTH_CLASS\X64\DEBUG\VC142.IDB
C:\USERS\黎大富\DESKTOP\物件導向\作業5\5.2-DESIGN_MONTH_CLASS\X64\DEBUG\MAIN.OBJ
C:\USERS\黎大富\DESKTOP\物件導向\作業5\5.2-DESIGN_MONTH_CLASS\X64\DEBUG\MONTH.OBJ
^C:\USERS\黎大富\DESKTOP\物件導向\作業5\5.2-DESIGN_MONTH_CLASS\MAIN.CPP|C:\USERS\黎大富\DESKTOP\物件導向\作業5\5.2-DESIGN_MONTH_CLASS\MONTH.CPP|C:\USERS\黎大富\DESKTOP\物件導向\作業5\5.2-DESIGN_MONTH_CLASS\MONTH.H
C:\USERS\黎大富\DESKTOP\物件導向\作業5\5.2-DESIGN_MONTH_CLASS\X64\DEBUG\VC142.PDB
C:\USERS\黎大富\DESKTOP\物件導向\作業5\5.2-DESIGN_MONTH_CLASS\X64\DEBUG\VC142.IDB
C:\USERS\黎大富\DESKTOP\物件導向\作業5\5.2-DESIGN_MONTH_CLASS\X64\DEBUG\MAIN.OBJ
C:\USERS\黎大富\DESKTOP\物件導向\作業5\5.2-DESIGN_MONTH_CLASS\X64\DEBUG\MONTH.OBJ
^C:\USERS\黎大富\DESKTOP\物件導向\作業5\5.2-DESIGN_MONTH_CLASS\MONTH.H
C:\USERS\黎大富\DESKTOP\物件導向\作業5\5.2-DESIGN_MONTH_CLASS\X64\DEBUG\VC142.PDB
^C:\USERS\黎大富\DESKTOP\物件導向\作業5\5.2-DESIGN_MONTH_CLASS\MAIN.CPP
C:\USERS\黎大富\DESKTOP\物件導向\作業5\5.2-DESIGN_MONTH_CLASS\X64\DEBUG\VC142.PDB
C:\USERS\黎大富\DESKTOP\物件導向\作業5\5.2-DESIGN_MONTH_CLASS\X64\DEBUG\VC142.IDB
C:\USERS\黎大富\DESKTOP\物件導向\作業5\5.2-DESIGN_MONTH_CLASS\X64\DEBUG\MAIN.OBJ
^C:\USERS\黎大富\DESKTOP\物件導向\作業5\5.2-DESIGN_MONTH_CLASS\MONTH.CPP
C:\USERS\黎大富\DESKTOP\物件導向\作業5\5.2-DESIGN_MONTH_CLASS\X64\DEBUG\VC142.PDB
C:\USERS\黎大富\DESKTOP\物件導向\作業5\5.2-DESIGN_MONTH_CLASS\X64\DEBUG\VC142.IDB
C:\USERS\黎大富\DESKTOP\物件導向\作業5\5.2-DESIGN_MONTH_CLASS\X64\DEBUG\MONTH.OBJ
