^C:\USERS\黎大富\DESKTOP\物件導向\作業5\5.2-DESIGN_MONTH_CLASS\X64\DEBUG\MAIN.OBJ|C:\USERS\黎大富\DESKTOP\物件導向\作業5\5.2-DESIGN_MONTH_CLASS\X64\DEBUG\MONTH.OBJ|C:\USERS\黎大富\DESKTOP\物件導向\作業5\5.2-DESIGN_MONTH_CLASS\X64\DEBUG\MONTH.OBJ
/OUT:"C:\USERS\黎大富\DESKTOP\物件導向\作業5\X64\DEBUG\5.2-DESIGN_MONTH_CLASS.EXE" /INCREMENTAL /NOLOGO KERNEL32.LIB USER32.LIB GDI32.LIB WINSPOOL.LIB COMDLG32.LIB ADVAPI32.LIB SHELL32.LIB OLE32.LIB OLEAUT32.LIB UUID.LIB ODBC32.LIB ODBCCP32.LIB /MANIFEST /MANIFESTUAC:"level='asInvoker' uiAccess='false'" /manifest:embed /DEBUG:FASTLINK /PDB:"C:\USERS\黎大富\DESKTOP\物件導向\作業5\X64\DEBUG\5.2-DESIGN_MONTH_CLASS.PDB" /SUBSYSTEM:CONSOLE /TLBID:1 /DYNAMICBASE /NXCOMPAT /IMPLIB:"C:\USERS\黎大富\DESKTOP\物件導向\作業5\X64\DEBUG\5.2-DESIGN_MONTH_CLASS.LIB" /MACHINE:X64 X64\DEBUG\MAIN.OBJ
X64\DEBUG\MONTH.OBJ
X64\DEBUG\MONTH.OBJ
