^C:\USERS\黎大富\DESKTOP\物件導向\作業14\15.2-LIBRARY_DATABASE\MAIN.CPP
C:\USERS\黎大富\DESKTOP\物件導向\作業14\15.2-LIBRARY_DATABASE\X64\DEBUG\VC142.PDB
C:\USERS\黎大富\DESKTOP\物件導向\作業14\15.2-LIBRARY_DATABASE\X64\DEBUG\VC142.IDB
C:\USERS\黎大富\DESKTOP\物件導向\作業14\15.2-LIBRARY_DATABASE\X64\DEBUG\MAIN.OBJ
