^C:\USERS\黎大富\DESKTOP\物件導向\HW8\8.1-DESIGN_POLYNOMIAL_CLASS\MAIN.CPP
C:\USERS\黎大富\DESKTOP\物件導向\HW8\8.1-DESIGN_POLYNOMIAL_CLASS\X64\DEBUG\VC142.PDB
C:\USERS\黎大富\DESKTOP\物件導向\HW8\8.1-DESIGN_POLYNOMIAL_CLASS\X64\DEBUG\VC142.IDB
C:\USERS\黎大富\DESKTOP\物件導向\HW8\8.1-DESIGN_POLYNOMIAL_CLASS\X64\DEBUG\MAIN.OBJ
