^C:\USERS\黎大富\DESKTOP\物件導向\實習七\7.3-OBSERVATION_DIARY_LAB\MAIN.CPP|C:\USERS\黎大富\DOWNLOADS\CREATURE.CPP|C:\USERS\黎大富\DOWNLOADS\DIARY.CPP
C:\USERS\黎大富\DESKTOP\物件導向\實習七\7.3-OBSERVATION_DIARY_LAB\X64\DEBUG\VC142.PDB
C:\USERS\黎大富\DESKTOP\物件導向\實習七\7.3-OBSERVATION_DIARY_LAB\X64\DEBUG\VC142.IDB
C:\USERS\黎大富\DESKTOP\物件導向\實習七\7.3-OBSERVATION_DIARY_LAB\X64\DEBUG\MAIN.OBJ
C:\USERS\黎大富\DESKTOP\物件導向\實習七\7.3-OBSERVATION_DIARY_LAB\X64\DEBUG\DIARY.OBJ
C:\USERS\黎大富\DESKTOP\物件導向\實習七\7.3-OBSERVATION_DIARY_LAB\X64\DEBUG\CREATURE.OBJ
^C:\USERS\黎大富\DOWNLOADS\DIARY.CPP
C:\USERS\黎大富\DESKTOP\物件導向\實習七\7.3-OBSERVATION_DIARY_LAB\X64\DEBUG\VC142.PDB
^C:\USERS\黎大富\DESKTOP\物件導向\實習七\7.3-OBSERVATION_DIARY_LAB\MAIN.CPP
C:\USERS\黎大富\DESKTOP\物件導向\實習七\7.3-OBSERVATION_DIARY_LAB\X64\DEBUG\VC142.PDB
^C:\USERS\黎大富\DOWNLOADS\CREATURE.CPP
C:\USERS\黎大富\DESKTOP\物件導向\實習七\7.3-OBSERVATION_DIARY_LAB\X64\DEBUG\VC142.PDB
C:\USERS\黎大富\DESKTOP\物件導向\實習七\7.3-OBSERVATION_DIARY_LAB\X64\DEBUG\VC142.IDB
C:\USERS\黎大富\DESKTOP\物件導向\實習七\7.3-OBSERVATION_DIARY_LAB\X64\DEBUG\CREATURE.OBJ
