^C:\USERS\黎大富\DESKTOP\物件導向\作業9\9.2-NAMESPACE\X64\DEBUG\MAIN.OBJ|C:\USERS\黎大富\DESKTOP\物件導向\作業9\9.2-NAMESPACE\X64\DEBUG\PASSWORD.OBJ|C:\USERS\黎大富\DESKTOP\物件導向\作業9\9.2-NAMESPACE\X64\DEBUG\USER.OBJ
C:\USERS\黎大富\DESKTOP\物件導向\作業9\X64\DEBUG\9.2-NAMESPACE.ILK
C:\USERS\黎大富\DESKTOP\物件導向\作業9\X64\DEBUG\9.2-NAMESPACE.EXE
C:\USERS\黎大富\DESKTOP\物件導向\作業9\X64\DEBUG\9.2-NAMESPACE.PDB
