^C:\USERS\黎大富\DESKTOP\物件導向\作業15\15.1-SET_EXERCISE\MAIN.CPP
C:\USERS\黎大富\DESKTOP\物件導向\作業15\15.1-SET_EXERCISE\X64\DEBUG\VC142.PDB
C:\USERS\黎大富\DESKTOP\物件導向\作業15\15.1-SET_EXERCISE\X64\DEBUG\VC142.IDB
C:\USERS\黎大富\DESKTOP\物件導向\作業15\15.1-SET_EXERCISE\X64\DEBUG\MAIN.OBJ
