^C:\USERS\黎大富\DESKTOP\物件導向\實習7\7.2-N_DIM_VECTOR_LAB\X64\DEBUG\MAIN.OBJ|C:\USERS\黎大富\DESKTOP\物件導向\實習7\7.2-N_DIM_VECTOR_LAB\X64\DEBUG\VEFNF.OBJ
C:\USERS\黎大富\DESKTOP\物件導向\實習7\X64\DEBUG\7.2-N_DIM_VECTOR_LAB.ILK
C:\USERS\黎大富\DESKTOP\物件導向\實習7\X64\DEBUG\7.2-N_DIM_VECTOR_LAB.EXE
C:\USERS\黎大富\DESKTOP\物件導向\實習7\X64\DEBUG\7.2-N_DIM_VECTOR_LAB.PDB
