^C:\USERS\黎大富\DESKTOP\物件導向\作業8\8.1-DESIGN_POLYNOMIAL_CLASS\X64\DEBUG\MAIN.OBJ
C:\USERS\黎大富\DESKTOP\物件導向\作業8\X64\DEBUG\8.1-DESIGN_POLYNOMIAL_CLASS.EXE
C:\USERS\黎大富\DESKTOP\物件導向\作業8\X64\DEBUG\8.1-DESIGN_POLYNOMIAL_CLASS.ILK
C:\USERS\黎大富\DESKTOP\物件導向\作業8\X64\DEBUG\8.1-DESIGN_POLYNOMIAL_CLASS.PDB
