^C:\USERS\黎大富\DESKTOP\物件導向\實習8\8.2-LEVENSHTEIN_DISTANCE_LAB\SOURCE.CPP
/c /ZI /JMC /nologo /W3 /WX- /diagnostics:column /sdl /Od /D _CRT_SECURE_NO_WARNINGS /D _UNICODE /D UNICODE /Gm- /EHsc /RTC1 /MDd /GS /fp:precise /permissive- /Zc:wchar_t /Zc:forScope /Zc:inline /Fo"X64\DEBUG\\" /Fd"X64\DEBUG\VC142.PDB" /Gd /TP /FC C:\USERS\黎大富\DESKTOP\物件導向\實習8\8.2-LEVENSHTEIN_DISTANCE_LAB\SOURCE.CPP
^C:\USERS\黎大富\DESKTOP\物件導向\實習8\8.2-LEVENSHTEIN_DISTANCE_LAB\MAIN.CPP
/c /ZI /JMC /nologo /W3 /WX- /diagnostics:column /sdl /Od /D _CRT_SECURE_NO_WARNINGS /D _UNICODE /D UNICODE /Gm- /EHsc /RTC1 /MDd /GS /fp:precise /permissive- /Zc:wchar_t /Zc:forScope /Zc:inline /Fo"X64\DEBUG\\" /Fd"X64\DEBUG\VC142.PDB" /Gd /TP /FC C:\USERS\黎大富\DESKTOP\物件導向\實習8\8.2-LEVENSHTEIN_DISTANCE_LAB\MAIN.CPP
